{
   "geocoded_waypoints" : [
      {
         "geocoder_status" : "OK",
         "place_id" : "ChIJvWDCPloZDTkRjoNtAas1DsY",
         "types" : [ "street_address" ]
      },
      {
         "geocoder_status" : "OK",
         "place_id" : "EmQyNjgtMjcxLCBVZHlvZyBWaWhhciBJSSBSZCwgUmFqaXYgTmFnYXIsIFVkeW9nIFZpaGFyIElJSSwgU2VjdG9yIDIwLCBHdXJ1Z3JhbSwgSGFyeWFuYSAxMjIwMDgsIEluZGlh",
         "types" : [ "street_address" ]
      }
   ],
   "routes" : [
      {
         "bounds" : {
            "northeast" : {
               "lat" : 28.5131251,
               "lng" : 77.0890898
            },
            "southwest" : {
               "lat" : 28.510081,
               "lng" : 77.0860691
            }
         },
         "copyrights" : "Map data ©2017 Google",
         "legs" : [
            {
               "distance" : {
                  "text" : "0.5 km",
                  "value" : 503
               },
               "duration" : {
                  "text" : "2 mins",
                  "value" : 98
               },
               "end_address" : "268-271, Udyog Vihar II Rd, Rajiv Nagar, Udyog Vihar III, Sector 20, Gurugram, Haryana 122008, India",
               "end_location" : {
                  "lat" : 28.5103418,
                  "lng" : 77.0860691
               },
               "start_address" : "488, Udyog Vihar III, Sector 20, Gurugram, Haryana 122022, India",
               "start_location" : {
                  "lat" : 28.5131251,
                  "lng" : 77.0886472
               },
               "steps" : [
                  {
                     "distance" : {
                        "text" : "51 m",
                        "value" : 51
                     },
                     "duration" : {
                        "text" : "1 min",
                        "value" : 8
                     },
                     "end_location" : {
                        "lat" : 28.5128789,
                        "lng" : 77.0890898
                     },
                     "html_instructions" : "Head \u003cb\u003esouth-east\u003c/b\u003e",
                     "polyline" : {
                        "points" : "a~_mDakouMd@{@J["
                     },
                     "start_location" : {
                        "lat" : 28.5131251,
                        "lng" : 77.0886472
                     },
                     "travel_mode" : "DRIVING"
                  },
                  {
                     "distance" : {
                        "text" : "0.4 km",
                        "value" : 406
                     },
                     "duration" : {
                        "text" : "1 min",
                        "value" : 74
                     },
                     "end_location" : {
                        "lat" : 28.510071,
                        "lng" : 77.0864299
                     },
                     "html_instructions" : "Turn \u003cb\u003eright\u003c/b\u003e towards \u003cb\u003eUdyog Vihar II Rd\u003c/b\u003e\u003cdiv style=\"font-size:0.9em\"\u003ePass by SML Labels India Pvt Ltd (on the left)\u003c/div\u003e",
                     "maneuver" : "turn-right",
                     "polyline" : {
                        "points" : "o|_mDymouMlCfCjDdDpApAbDpC@@"
                     },
                     "start_location" : {
                        "lat" : 28.5128789,
                        "lng" : 77.0890898
                     },
                     "travel_mode" : "DRIVING"
                  },
                  {
                     "distance" : {
                        "text" : "46 m",
                        "value" : 46
                     },
                     "duration" : {
                        "text" : "1 min",
                        "value" : 16
                     },
                     "end_location" : {
                        "lat" : 28.5103418,
                        "lng" : 77.0860691
                     },
                     "html_instructions" : "Turn \u003cb\u003eright\u003c/b\u003e onto \u003cb\u003eUdyog Vihar II Rd\u003c/b\u003e",
                     "maneuver" : "turn-right",
                     "polyline" : {
                        "points" : "}j_mDe}nuMY`@[d@"
                     },
                     "start_location" : {
                        "lat" : 28.510071,
                        "lng" : 77.0864299
                     },
                     "travel_mode" : "DRIVING"
                  }
               ],
               "traffic_speed_entry" : [],
               "via_waypoint" : []
            }
         ],
         "overview_polyline" : {
            "points" : "a~_mDakouMp@wAxHlHpApAbDpCWb@[d@"
         },
         "summary" : "Udyog Vihar II Rd",
         "warnings" : [],
         "waypoint_order" : []
      }
   ],
   "status" : "OK"
}
